{
    "node.2241c7b2-c803-4c47-9134-1d3c17000ffb": [
        "user.51acdf88-0e85-4c8b-b0e3-0b62028295b1",
        "taxonomy_term.abda129c-f8ed-494a-addd-33c4e9938eed",
        "taxonomy_term.8a9feeea-9faa-434c-8872-ff92a7b2617f"
    ],
    "node.6a385627-e15d-4c23-bf02-4a3c7519ce9f": [
        "user.51acdf88-0e85-4c8b-b0e3-0b62028295b1",
        "taxonomy_term.abda129c-f8ed-494a-addd-33c4e9938eed"
    ],
    "shortcut.bce80d3c-6e33-4523-8608-b8bf09620169": [],
    "shortcut.a093f3bc-c25d-45b4-b770-41211a6941b0": [],
    "taxonomy_term.abda129c-f8ed-494a-addd-33c4e9938eed": [],
    "taxonomy_term.8a9feeea-9faa-434c-8872-ff92a7b2617f": [],
    "user.3dc49e36-0fad-48eb-a25f-3175be5fe796": [],
    "user.51acdf88-0e85-4c8b-b0e3-0b62028295b1": []
}