{
    "uuid": [
        {
            "value": "8a9feeea-9faa-434c-8872-ff92a7b2617f"
        }
    ],
    "langcode": [
        {
            "value": "en"
        }
    ],
    "vid": [
        {
            "target_id": "tags",
            "target_type": "taxonomy_vocabulary",
            "target_uuid": "f0bd8136-04e1-458b-b871-8cf5034e0402"
        }
    ],
    "revision_created": [
        {
            "value": "2019-07-14T01:10:22+00:00",
            "format": "Y-m-d\\TH:i:sP"
        }
    ],
    "revision_user": [],
    "revision_log_message": [],
    "status": [
        {
            "value": true
        }
    ],
    "name": [
        {
            "value": "Italian"
        }
    ],
    "description": [
        {
            "value": null,
            "format": null
        }
    ],
    "weight": [
        {
            "value": 0
        }
    ],
    "parent": [
        {
            "target_id": null
        }
    ],
    "changed": [
        {
            "value": "2019-07-14T01:10:22+00:00",
            "format": "Y-m-d\\TH:i:sP"
        }
    ],
    "default_langcode": [
        {
            "value": true
        }
    ],
    "revision_translation_affected": [
        {
            "value": true
        }
    ],
    "path": [
        {
            "alias": null,
            "pid": null,
            "langcode": "en"
        }
    ]
}